org/academiadecodigo/stringrays/client/game/SmallCards.class
org/academiadecodigo/stringrays/client/menus/EndMenu.class
org/academiadecodigo/stringrays/client/chat/Chat.class
org/academiadecodigo/stringrays/client/menus/LooserMenu.class
org/academiadecodigo/stringrays/client/chat/ChatMapper.class
org/academiadecodigo/stringrays/server/Main.class
teststuff/MainTest.class
org/academiadecodigo/stringrays/client/game/Card.class
org/academiadecodigo/stringrays/server/GameHandler.class
org/academiadecodigo/stringrays/client/menus/WinnerMenu.class
org/academiadecodigo/stringrays/server/ChatListener.class
org/academiadecodigo/stringrays/client/menus/InstructionsMenu.class
org/academiadecodigo/stringrays/client/menus/MenuInterface.class
org/academiadecodigo/stringrays/client/Main.class
org/academiadecodigo/stringrays/client/game/Game.class
org/academiadecodigo/stringrays/client/menus/WaitingMenu.class
org/academiadecodigo/stringrays/client/menus/StartMenu.class
org/academiadecodigo/stringrays/server/Server.class
org/academiadecodigo/stringrays/client/game/Player.class
org/academiadecodigo/stringrays/client/chat/Command.class
org/academiadecodigo/stringrays/client/game/Board.class
org/academiadecodigo/stringrays/client/game/BigCards.class
